%YAML 1.1
%TAG !u! tag:unity3d.com,2011:
--- !u!1045 &1
EditorBuildSettings:
  m_ObjectHideFlags: 0
  serializedVersion: 2
  m_Scenes:
  - enabled: 1
    path: Assets/Scenes/MainMenu.unity
    guid: 729f55d4d491aef47941775777455b77
  - enabled: 1
    path: Assets/Scenes/LEVEL_SOLO.unity
    guid: e97135715272c12409f211a50e06a20b
  - enabled: 1
    path: Assets/Scenes/LEVEL_RACE.unity
    guid: 3ca47c98803445345bf33591ae3b7c1b
  m_configObjects: {}
